%YAML 1.1
%TAG !u! tag:unity3d.com,2011:
--- !u!74 &7400000
AnimationClip:
  m_ObjectHideFlags: 0
  m_PrefabParentObject: {fileID: 0}
  m_PrefabInternal: {fileID: 0}
  m_Name: Update
  serializedVersion: 6
  m_Legacy: 1
  m_Compressed: 0
  m_UseHighQualityCurve: 1
  m_RotationCurves:
  - curve:
      serializedVersion: 2
      m_Curve:
      - time: 0
        value: {x: -.0087265363, y: -0, z: -0, w: -.999961913}
        inSlope: {x: .0184271093, y: -.0264745858, z: 3.14004636, w: .0820720121}
        outSlope: {x: .0184271093, y: -.0264745858, z: 3.14004636, w: .0820720121}
        tangentMode: 0
      - time: .0166666675
        value: {x: -.00841941778, y: -.000441243115, z: .0523341075, w: -.998594046}
        inSlope: {x: .0193312094, y: -.0254840888, z: 3.13575077, w: .164185151}
        outSlope: {x: .0193312094, y: -.0254840888, z: 3.13575077, w: .164185151}
        tangentMode: 0
      - time: .0333333351
        value: {x: -.00808216259, y: -.000849469681, z: .10452503, w: -.994489074}
        inSlope: {x: .021029843, y: -.023437053, z: 3.12286854, w: .32807526}
        outSlope: {x: .021029843, y: -.023437053, z: 3.12286854, w: .32807526}
        tangentMode: 0
      - time: .0500000045
        value: {x: -.00771842292, y: -.00122247834, z: .156429738, w: -.987658203}
        inSlope: {x: .0225050319, y: -.0212698281, z: 3.10142565, w: .491069555}
        outSlope: {x: .0225050319, y: -.0212698281, z: 3.10142565, w: .491069555}
        tangentMode: 0
      - time: .0666666701
        value: {x: -.00733199483, y: -.00155846402, z: .207905889, w: -.978120089}
        inSlope: {x: .0237489641, y: -.0190064982, z: 3.07148075, w: .652715623}
        outSlope: {x: .0237489641, y: -.0190064982, z: 3.07148075, w: .652715623}
        tangentMode: 0
      - time: .0833333358
        value: {x: -.00692679081, y: -.00185602822, z: .258812428, w: -.965901017}
        inSlope: {x: .024756331, y: -.016671557, z: 3.03311729, w: .812577069}
        outSlope: {x: .024756331, y: -.016671557, z: 3.03311729, w: .812577069}
        tangentMode: 0
      - time: .100000001
        value: {x: -.00650678389, y: -.00211418257, z: .30900979, w: -.951034188}
        inSlope: {x: .0255243368, y: -.0142896613, z: 2.9864397, w: .970210552}
        outSlope: {x: .0255243368, y: -.0142896613, z: 2.9864397, w: .970210552}
        tangentMode: 0
      - time: .116666667
        value: {x: -.00607597968, y: -.00233235024, z: .35836041, w: -.933560669}
        inSlope: {x: .0260524601, y: -.0118854325, z: 2.93157434, w: 1.12518477}
        outSlope: {x: .0260524601, y: -.0118854325, z: 2.93157434, w: 1.12518477}
        tangentMode: 0
      - time: .13333334
        value: {x: -.00563836843, y: -.0025103637, z: .406728953, w: -.913528025}
        inSlope: {x: .0263426565, y: -.00948324893, z: 2.86867309, w: 1.27708006}
        outSlope: {x: .0263426565, y: -.00948324893, z: 2.86867309, w: 1.27708006}
        tangentMode: 0
      - time: .150000006
        value: {x: -.00519789103, y: -.00264845858, z: .45398286, w: -.89099133}
        inSlope: {x: .0263990294, y: -.00710701663, z: 2.79790735, w: 1.42547083}
        outSlope: {x: .0263990294, y: -.00710701663, z: 2.79790735, w: 1.42547083}
        tangentMode: 0
      - time: .166666672
        value: {x: -.00475840084, y: -.00274726423, z: .49999252, w: -.866012335}
        inSlope: {x: .0262281504, y: -.0047799903, z: 2.71947145, w: 1.56995785}
        outSlope: {x: .0262281504, y: -.0047799903, z: 2.71947145, w: 1.56995785}
        tangentMode: 0
      - time: .183333337
        value: {x: -.00432361942, y: -.00280779158, z: .544631898, w: -.838659406}
        inSlope: {x: .0258387886, y: -.00252452469, z: 2.63357806, w: 1.7101444}
        outSlope: {x: .0258387886, y: -.00252452469, z: 2.63357806, w: 1.7101444}
        tangentMode: 0
      - time: .200000003
        value: {x: -.0038971079, y: -.00283141504, z: .587778449, w: -.809007525}
        inSlope: {x: .0252416488, y: -.000361923623, z: 2.54046702, w: 1.84563887}
        outSlope: {x: .0252416488, y: -.000361923623, z: 2.54046702, w: 1.84563887}
        tangentMode: 0
      - time: .216666669
        value: {x: -.00348223117, y: -.0028198557, z: .629314125, w: -.777138114}
        inSlope: {x: .0244495105, y: .00168772426, z: 2.44039559, w: 1.9760747}
        outSlope: {x: .0244495105, y: .00168772426, z: 2.44039559, w: 1.9760747}
        tangentMode: 0
      - time: .233333334
        value: {x: -.00308212428, y: -.00277515757, z: .669124961, w: -.743138373}
        inSlope: {x: .0234770849, y: .00360580441, z: 2.3336277, w: 2.10109615}
        outSlope: {x: .0234770849, y: .00360580441, z: 2.3336277, w: 2.10109615}
        tangentMode: 0
      - time: .25
        value: {x: -.00269966177, y: -.00269966223, z: .707101703, w: -.707101583}
        inSlope: {x: .0223407745, y: .00537528424, z: 2.22046232, w: 2.22035694}
        outSlope: {x: .0223407745, y: .00537528424, z: 2.22046232, w: 2.22035694}
        tangentMode: 0
      - time: .266666681
        value: {x: -.00233743154, y: -.00259598135, z: .743140399, w: -.669126451}
        inSlope: {x: .0210585501, y: .00698086247, z: 2.10121036, w: 2.33353233}
        outSlope: {x: .0210585501, y: .00698086247, z: 2.10121036, w: 2.33353233}
        tangentMode: 0
      - time: .283333361
        value: {x: -.00199770951, y: -.00246696663, z: .777142107, w: -.629317105}
        inSlope: {x: .0196497906, y: .00840908103, z: 1.97619987, w: 2.44031286}
        outSlope: {x: .0196497906, y: .00840908103, z: 1.97619987, w: 2.44031286}
        tangentMode: 0
      - time: .300000042
        value: {x: -.00168243796, y: -.0023156784, z: .809013784, w: -.587782621}
        inSlope: {x: .0181351118, y: .0096485056, z: 1.84577489, w: 2.54040194}
        outSlope: {x: .0181351118, y: .0096485056, z: 1.84577489, w: 2.54040194}
        tangentMode: 0
      - time: .316666722
        value: {x: -.00139320525, y: -.00214534951, z: .838667989, w: -.544636965}
        inSlope: {x: .0165362209, y: .0106898583, z: 1.7102859, w: 2.63352203}
        outSlope: {x: .0165362209, y: .0106898583, z: 1.7102859, w: 2.63352203}
        tangentMode: 0
      - time: .333333403
        value: {x: -.00113123015, y: -.00195934949, z: .866023362, w: -.49999848}
        inSlope: {x: .0148756728, y: .0115260333, z: 1.57010674, w: 2.71942687}
        outSlope: {x: .0148756728, y: .0115260333, z: 1.57010674, w: 2.71942687}
        tangentMode: 0
      - time: .350000083
        value: {x: -.000897349091, y: -.0017611481, z: .89100492, w: -.453989327}
        inSlope: {x: .0131766181, y: .0121520832, z: 1.42562699, w: 2.7978816}
        outSlope: {x: .0131766181, y: .0121520832, z: 1.42562699, w: 2.7978816}
        tangentMode: 0
      - time: .366666764
        value: {x: -.000692009169, y: -.0015542797, z: .913544297, w: -.406735688}
        inSlope: {x: .0114627127, y: .0125655485, z: 1.27724195, w: 2.8686657}
        outSlope: {x: .0114627127, y: .0125655485, z: 1.27724195, w: 2.8686657}
        tangentMode: 0
      - time: .383333445
        value: {x: -.000515258347, y: -.00134229613, z: .933579683, w: -.358367056}
        inSlope: {x: .00975783821, y: .0127663296, z: 1.12535024, w: 2.93157959}
        outSlope: {x: .00975783821, y: .0127663296, z: 1.12535024, w: 2.93157959}
        tangentMode: 0
      - time: .400000125
        value: {x: -.000366747612, y: -.00112873502, z: .951056004, w: -.309016287}
        inSlope: {x: .0080858795, y: .0127566382, z: .970374167, w: 2.9864583}
        outSlope: {x: .0080858795, y: .0127566382, z: .970374167, w: 2.9864583}
        tangentMode: 0
      - time: .416666806
        value: {x: -.000245728792, y: -.000917074503, z: .965925515, w: -.258818358}
        inSlope: {x: .00647055078, y: .0125411907, z: .812744439, w: 3.0331552}
        outSlope: {x: .00647055078, y: .0125411907, z: .812744439, w: 3.0331552}
        tangentMode: 0
      - time: .433333486
        value: {x: -.000151062413, y: -.000710694992, z: .978147507, w: -.207911029}
        inSlope: {x: .00493508857, y: .0121269906, z: .652883112, w: 3.07153535}
        outSlope: {x: .00493508857, y: .0121269906, z: .652883112, w: 3.07153535}
        tangentMode: 0
      - time: .450000167
        value: {x: -8.12256985e-05, y: -.000512841158, z: .987688303, w: -.156433761}
        inSlope: {x: .00350212958, y: .01152346, z: .491231859, w: 3.1014936}
        outSlope: {x: .00350212958, y: .01152346, z: .491231859, w: 3.1014936}
        tangentMode: 0
      - time: .466666847
        value: {x: -3.43246611e-05, y: -.000326579349, z: .994521916, w: -.104527824}
        inSlope: {x: .00219344627, y: .0107422788, z: .328237742, w: 3.12295604}
        outSlope: {x: .00219344627, y: .0107422788, z: .328237742, w: 3.12295604}
        tangentMode: 0
      - time: .483333528
        value: {x: -8.11075734e-06, y: -.000154764886, z: .99862957, w: -.0523351394}
        inSlope: {x: .00102973939, y: .0097974278, z: .164342463, w: 3.13585424}
        outSlope: {x: .00102973939, y: .0097974278, z: .164342463, w: 3.13585424}
        tangentMode: 0
      - time: .500000179
        value: {x: -9.98306891e-16, y: 1.560445e-09, z: 1, w: 6.39757843e-07}
        inSlope: {x: 2.99294334e-05, y: .00871468708, z: -1.78813934e-06, w: 3.14015675}
        outSlope: {x: 2.99294334e-05, y: .00871468708, z: -1.78813934e-06, w: 3.14015675}
        tangentMode: 0
      - time: .51666683
        value: {x: -7.11311077e-06, y: .000135724418, z: .99862951, w: .0523366556}
        inSlope: {x: -.000794621417, y: .00756022427, z: -.164346263, w: 3.13585663}
        outSlope: {x: -.000794621417, y: .00756022427, z: -.164346263, w: 3.13585663}
        tangentMode: 0
      - time: .53333348
        value: {x: -2.64873543e-05, y: .000252008787, z: .994521797, w: .104529098}
        inSlope: {x: -.00144527294, y: .00640063128, z: -.328240097, w: 3.12295413}
        outSlope: {x: -.00144527294, y: .00640063128, z: -.328240097, w: 3.12295413}
        tangentMode: 0
      - time: .550000131
        value: {x: -5.52888268e-05, y: .000349078589, z: .987688184, w: .156435028}
        inSlope: {x: -.00193098094, y: .00526264776, z: -.491232753, w: 3.10149527}
        outSlope: {x: -.00193098094, y: .00526264776, z: -.491232753, w: 3.10149527}
        tangentMode: 0
      - time: .566666782
        value: {x: -9.08533257e-05, y: .000427430205, z: .978147388, w: .207912177}
        inSlope: {x: -.0022625667, y: .00416184589, z: -.652878881, w: 3.07153606}
        outSlope: {x: -.0022625667, y: .00416184589, z: -.652878881, w: 3.07153606}
        tangentMode: 0
      - time: .583333433
        value: {x: -.000130707645, y: .000487806654, z: .965925574, w: .258819461}
        inSlope: {x: -.00245204126, y: .00311220717, z: -.812736928, w: 3.03315759}
        outSlope: {x: -.00245204126, y: .00311220717, z: -.812736928, w: 3.03315759}
        tangentMode: 0
      - time: .600000083
        value: {x: -.000172587956, y: .000531170343, z: .951056182, w: .30901733}
        inSlope: {x: -.00251243729, y: .00212604832, z: -.970365107, w: 2.98646927}
        outSlope: {x: -.00251243729, y: .00212604832, z: -.970365107, w: 2.98646927}
        tangentMode: 0
      - time: .616666734
        value: {x: -.000214455475, y: .000558674859, z: .933580101, w: .358368337}
        inSlope: {x: -.00245762523, y: .00121395395, z: -1.12533259, w: 2.93158841}
        outSlope: {x: -.00245762523, y: .00121395395, z: -1.12533259, w: 2.93158841}
        tangentMode: 0
      - time: .633333385
        value: {x: -.000254508719, y: .000571635435, z: .913545132, w: .406736851}
        inSlope: {x: -.00230214512, y: .000384726241, z: -1.27721906, w: 2.86867452}
        outSlope: {x: -.00230214512, y: .000384726241, z: -1.27721906, w: 2.86867452}
        tangentMode: 0
      - time: .650000036
        value: {x: -.000291193574, y: .000571499055, z: .891006172, w: .453990728}
        inSlope: {x: -.00206101942, y: -.00035462642, z: -1.42560267, w: 2.79790068}
        outSlope: {x: -.00206101942, y: -.00035462642, z: -1.42560267, w: 2.79790068}
        tangentMode: 0
      - time: .666666687
        value: {x: -.0003232093, y: .000559814565, z: .86602509, w: .500000119}
        inSlope: {x: -.00174956326, y: -.000998928212, z: -1.57007909, w: 2.71945429}
        outSlope: {x: -.00174956326, y: -.000998928212, z: -1.57007909, w: 2.71945429}
        tangentMode: 0
      - time: .683333337
        value: {x: -.000349512295, y: .000538201479, z: .838670254, w: .544639111}
        inSlope: {x: -.00138321612, y: -.00154482992, z: -1.71025133, w: 2.63355803}
        outSlope: {x: -.00138321612, y: -.00154482992, z: -1.71025133, w: 2.63355803}
        tangentMode: 0
      - time: .699999988
        value: {x: -.000369316462, y: .000508320285, z: .809016764, w: .587785304}
        inSlope: {x: -.000977361458, y: -.00199075881, z: -1.84573698, w: 2.54044056}
        outSlope: {x: -.000977361458, y: -.00199075881, z: -1.84573698, w: 2.54044056}
        tangentMode: 0
      - time: .716666639
        value: {x: -.000382090977, y: .000471842912, z: .777145743, w: .629320383}
        inSlope: {x: -.000547138858, y: -.00233693514, z: -1.97616935, w: 2.44036388}
        outSlope: {x: -.000547138858, y: -.00233693514, z: -1.97616935, w: 2.44036388}
        tangentMode: 0
      - time: .73333329
        value: {x: -.000387554406, y: .000430422515, z: .743144512, w: .669130683}
        inSlope: {x: -.000107281478, y: -.00258527906, z: -2.10117292, w: 2.33359194}
        outSlope: {x: -.000107281478, y: -.00258527906, z: -2.10117292, w: 2.33359194}
        tangentMode: 0
      - time: .74999994
        value: {x: -.000385667023, y: .000385667023, z: .707106709, w: .707106709}
        inSlope: {x: .000328034832, y: -.00273937453, z: -2.2204206, w: 2.22042418}
        outSlope: {x: .000328034832, y: -.00273937453, z: -2.2204206, w: 2.22042418}
        tangentMode: 0
      - time: .766666591
        value: {x: -.000376619922, y: .00033911012, z: .669130564, w: .743144751}
        inSlope: {x: .000745375408, y: -.00280439365, z: -2.33359027, w: 2.10117292}
        outSlope: {x: .000745375408, y: -.00280439365, z: -2.33359027, w: 2.10117292}
        tangentMode: 0
      - time: .783333242
        value: {x: -.000360821199, y: .000292187324, z: .629320443, w: .777145743}
        inSlope: {x: .00113218406, y: -.00278697489, z: -2.44036555, w: 1.97616935}
        outSlope: {x: .00113218406, y: -.00278697489, z: -2.44036555, w: 1.97616935}
        tangentMode: 0
      - time: .799999893
        value: {x: -.000338880491, y: .000246211042, z: .587785125, w: .809017003}
        inSlope: {x: .00147691718, y: -.00269513857, z: -2.54044056, w: 1.84574056}
        outSlope: {x: .00147691718, y: -.00269513857, z: -2.54044056, w: 1.84574056}
        tangentMode: 0
      - time: .816666543
        value: {x: -.000311590673, y: .00020234946, z: .54463917, w: .838670373}
        inSlope: {x: .00176918833, y: -.00253818906, z: -2.63355088, w: 1.71024776}
        outSlope: {x: .00176918833, y: -.00253818906, z: -2.63355088, w: 1.71024776}
        tangentMode: 0
      - time: .833333194
        value: {x: -.000279907603, y: .000161604825, z: .500000179, w: .866025209}
        inSlope: {x: .00199986296, y: -.0023265616, z: -2.71945429, w: 1.57007909}
        outSlope: {x: .00199986296, y: -.0023265616, z: -2.71945429, w: 1.57007909}
        tangentMode: 0
      - time: .849999845
        value: {x: -.00024492864, y: .000124797487, z: .453990787, w: .891006291}
        inSlope: {x: .00216119201, y: -.00207168236, z: -2.79790449, w: 1.42560625}
        outSlope: {x: .00216119201, y: -.00207168236, z: -2.79790449, w: 1.42560625}
        tangentMode: 0
      - time: .866666496
        value: {x: -.000207867939, y: 9.2548813e-05, z: .406736791, w: .91354537}
        inSlope: {x: .00224690442, y: -.00178585108, z: -2.86868167, w: 1.27722263}
        outSlope: {x: .00224690442, y: -.00178585108, z: -2.86868167, w: 1.27722263}
        tangentMode: 0
      - time: .883333147
        value: {x: -.000170031897, y: 6.52691742e-05, z: .358368158, w: .933580339}
        inSlope: {x: .00225225231, y: -.00148205343, z: -2.93158841, w: 1.12533259}
        outSlope: {x: .00225225231, y: -.00148205343, z: -2.93158841, w: 1.12533259}
        tangentMode: 0
      - time: .899999797
        value: {x: -.000132792935, y: 4.31470799e-05, z: .309017271, w: .951056421}
        inSlope: {x: .00217410875, y: -.00117382803, z: -2.98646641, w: .970363319}
        outSlope: {x: .00217410875, y: -.00117382803, z: -2.98646641, w: .970363319}
        tangentMode: 0
      - time: .916666448
        value: {x: -9.75616786e-05, y: 2.6141608e-05, z: .258819371, w: .965925753}
        inSlope: {x: .00201102276, y: -.000875087804, z: -3.03315878, w: .812733352}
        outSlope: {x: .00201102276, y: -.000875087804, z: -3.03315878, w: .812733352}
        tangentMode: 0
      - time: .933333099
        value: {x: -6.57589044e-05, y: 1.39775148e-05, z: .207912073, w: .978147507}
        inSlope: {x: .00176324695, y: -.000599951367, z: -3.07153678, w: .652875304}
        outSlope: {x: .00176324695, y: -.000599951367, z: -3.07153678, w: .652875304}
        tangentMode: 0
      - time: .94999975
        value: {x: -3.87868349e-05, y: 6.14324927e-06, z: .156434909, w: .987688243}
        inSlope: {x: .00143274036, y: -.000362566265, z: -3.10149598, w: .491230965}
        outSlope: {x: .00143274036, y: -.000362566265, z: -3.10149598, w: .491230965}
        tangentMode: 0
      - time: .9666664
        value: {x: -1.80009356e-05, y: 1.89198386e-06, z: .104528971, w: .994521856}
        inSlope: {x: .0010231979, y: -.000176939066, z: -3.12294722, w: .328238308}
        outSlope: {x: .0010231979, y: -.000176939066, z: -3.12294722, w: .328238308}
        tangentMode: 0
      - time: .983333051
        value: {x: -4.68027019e-06, y: 2.45286344e-07, z: .0523367636, w: .99862951}
        inSlope: {x: .000540026056, y: -5.67594361e-05, z: -3.13585377, w: .16434373}
        outSlope: {x: .000540026056, y: -5.67594361e-05, z: -3.13585377, w: .16434373}
        tangentMode: 0
      - time: 1
        value: {x: -0, y: -0, z: -3.2584137e-07, w: 1}
        inSlope: {x: .000280811451, y: -1.47169312e-05, z: -3.140172, w: .0822279826}
        outSlope: {x: .000280811451, y: -1.47169312e-05, z: -3.140172, w: .0822279826}
        tangentMode: 0
      m_PreInfinity: 2
      m_PostInfinity: 2
    path: 
  m_CompressedRotationCurves: []
  m_PositionCurves: []
  m_ScaleCurves: []
  m_FloatCurves:
  - curve:
      serializedVersion: 2
      m_Curve:
      - time: 0
        value: -160
        inSlope: 0
        outSlope: 0
        tangentMode: 10
      - time: 1
        value: -160
        inSlope: 0
        outSlope: 0
        tangentMode: 10
      m_PreInfinity: 2
      m_PostInfinity: 2
    attribute: m_AnchoredPosition.x
    path: 
    classID: 224
    script: {fileID: 0}
  - curve:
      serializedVersion: 2
      m_Curve:
      - time: 0
        value: 130
        inSlope: 0
        outSlope: 0
        tangentMode: 10
      - time: 1
        value: 130
        inSlope: 0
        outSlope: 0
        tangentMode: 10
      m_PreInfinity: 2
      m_PostInfinity: 2
    attribute: m_AnchoredPosition.y
    path: 
    classID: 224
    script: {fileID: 0}
  m_PPtrCurves: []
  m_SampleRate: 60
  m_WrapMode: 2
  m_Bounds:
    m_Center: {x: 0, y: 0, z: 0}
    m_Extent: {x: 0, y: 0, z: 0}
  m_ClipBindingConstant:
    genericBindings: []
    pptrCurveMapping: []
  m_AnimationClipSettings:
    serializedVersion: 2
    m_StartTime: 0
    m_StopTime: 1
    m_OrientationOffsetY: 0
    m_Level: 0
    m_CycleOffset: 0
    m_LoopTime: 1
    m_LoopBlend: 0
    m_LoopBlendOrientation: 0
    m_LoopBlendPositionY: 0
    m_LoopBlendPositionXZ: 0
    m_KeepOriginalOrientation: 0
    m_KeepOriginalPositionY: 1
    m_KeepOriginalPositionXZ: 0
    m_HeightFromFeet: 0
    m_Mirror: 0
  m_EditorCurves:
  - curve:
      serializedVersion: 2
      m_Curve:
      - time: 0
        value: -160
        inSlope: 0
        outSlope: 0
        tangentMode: 10
      - time: 1
        value: -160
        inSlope: 0
        outSlope: 0
        tangentMode: 10
      m_PreInfinity: 2
      m_PostInfinity: 2
    attribute: m_AnchoredPosition.x
    path: 
    classID: 224
    script: {fileID: 0}
  - curve:
      serializedVersion: 2
      m_Curve:
      - time: 0
        value: 130
        inSlope: 0
        outSlope: 0
        tangentMode: 10
      - time: 1
        value: 130
        inSlope: 0
        outSlope: 0
        tangentMode: 10
      m_PreInfinity: 2
      m_PostInfinity: 2
    attribute: m_AnchoredPosition.y
    path: 
    classID: 224
    script: {fileID: 0}
  - curve:
      serializedVersion: 2
      m_Curve:
      - time: 0
        value: -.0087265363
        inSlope: .0184271093
        outSlope: .0184271093
        tangentMode: 0
      - time: .0166666675
        value: -.00841941778
        inSlope: .0193312094
        outSlope: .0193312094
        tangentMode: 0
      - time: .0333333351
        value: -.00808216259
        inSlope: .021029843
        outSlope: .021029843
        tangentMode: 0
      - time: .0500000045
        value: -.00771842292
        inSlope: .0225050319
        outSlope: .0225050319
        tangentMode: 0
      - time: .0666666701
        value: -.00733199483
        inSlope: .0237489641
        outSlope: .0237489641
        tangentMode: 0
      - time: .0833333358
        value: -.00692679081
        inSlope: .024756331
        outSlope: .024756331
        tangentMode: 0
      - time: .100000001
        value: -.00650678389
        inSlope: .0255243368
        outSlope: .0255243368
        tangentMode: 0
      - time: .116666667
        value: -.00607597968
        inSlope: .0260524601
        outSlope: .0260524601
        tangentMode: 0
      - time: .13333334
        value: -.00563836843
        inSlope: .0263426565
        outSlope: .0263426565
        tangentMode: 0
      - time: .150000006
        value: -.00519789103
        inSlope: .0263990294
        outSlope: .0263990294
        tangentMode: 0
      - time: .166666672
        value: -.00475840084
        inSlope: .0262281504
        outSlope: .0262281504
        tangentMode: 0
      - time: .183333337
        value: -.00432361942
        inSlope: .0258387886
        outSlope: .0258387886
        tangentMode: 0
      - time: .200000003
        value: -.0038971079
        inSlope: .0252416488
        outSlope: .0252416488
        tangentMode: 0
      - time: .216666669
        value: -.00348223117
        inSlope: .0244495105
        outSlope: .0244495105
        tangentMode: 0
      - time: .233333334
        value: -.00308212428
        inSlope: .0234770849
        outSlope: .0234770849
        tangentMode: 0
      - time: .25
        value: -.00269966177
        inSlope: .0223407745
        outSlope: .0223407745
        tangentMode: 0
      - time: .266666681
        value: -.00233743154
        inSlope: .0210585501
        outSlope: .0210585501
        tangentMode: 0
      - time: .283333361
        value: -.00199770951
        inSlope: .0196497906
        outSlope: .0196497906
        tangentMode: 0
      - time: .300000042
        value: -.00168243796
        inSlope: .0181351118
        outSlope: .0181351118
        tangentMode: 0
      - time: .316666722
        value: -.00139320525
        inSlope: .0165362209
        outSlope: .0165362209
        tangentMode: 0
      - time: .333333403
        value: -.00113123015
        inSlope: .0148756728
        outSlope: .0148756728
        tangentMode: 0
      - time: .350000083
        value: -.000897349091
        inSlope: .0131766181
        outSlope: .0131766181
        tangentMode: 0
      - time: .366666764
        value: -.000692009169
        inSlope: .0114627127
        outSlope: .0114627127
        tangentMode: 0
      - time: .383333445
        value: -.000515258347
        inSlope: .00975783821
        outSlope: .00975783821
        tangentMode: 0
      - time: .400000125
        value: -.000366747612
        inSlope: .0080858795
        outSlope: .0080858795
        tangentMode: 0
      - time: .416666806
        value: -.000245728792
        inSlope: .00647055078
        outSlope: .00647055078
        tangentMode: 0
      - time: .433333486
        value: -.000151062413
        inSlope: .00493508857
        outSlope: .00493508857
        tangentMode: 0
      - time: .450000167
        value: -8.12256985e-05
        inSlope: .00350212958
        outSlope: .00350212958
        tangentMode: 0
      - time: .466666847
        value: -3.43246611e-05
        inSlope: .00219344627
        outSlope: .00219344627
        tangentMode: 0
      - time: .483333528
        value: -8.11075734e-06
        inSlope: .00102973939
        outSlope: .00102973939
        tangentMode: 0
      - time: .500000179
        value: -9.98306891e-16
        inSlope: 2.99294334e-05
        outSlope: 2.99294334e-05
        tangentMode: 0
      - time: .51666683
        value: -7.11311077e-06
        inSlope: -.000794621417
        outSlope: -.000794621417
        tangentMode: 0
      - time: .53333348
        value: -2.64873543e-05
        inSlope: -.00144527294
        outSlope: -.00144527294
        tangentMode: 0
      - time: .550000131
        value: -5.52888268e-05
        inSlope: -.00193098094
        outSlope: -.00193098094
        tangentMode: 0
      - time: .566666782
        value: -9.08533257e-05
        inSlope: -.0022625667
        outSlope: -.0022625667
        tangentMode: 0
      - time: .583333433
        value: -.000130707645
        inSlope: -.00245204126
        outSlope: -.00245204126
        tangentMode: 0
      - time: .600000083
        value: -.000172587956
        inSlope: -.00251243729
        outSlope: -.00251243729
        tangentMode: 0
      - time: .616666734
        value: -.000214455475
        inSlope: -.00245762523
        outSlope: -.00245762523
        tangentMode: 0
      - time: .633333385
        value: -.000254508719
        inSlope: -.00230214512
        outSlope: -.00230214512
        tangentMode: 0
      - time: .650000036
        value: -.000291193574
        inSlope: -.00206101942
        outSlope: -.00206101942
        tangentMode: 0
      - time: .666666687
        value: -.0003232093
        inSlope: -.00174956326
        outSlope: -.00174956326
        tangentMode: 0
      - time: .683333337
        value: -.000349512295
        inSlope: -.00138321612
        outSlope: -.00138321612
        tangentMode: 0
      - time: .699999988
        value: -.000369316462
        inSlope: -.000977361458
        outSlope: -.000977361458
        tangentMode: 0
      - time: .716666639
        value: -.000382090977
        inSlope: -.000547138858
        outSlope: -.000547138858
        tangentMode: 0
      - time: .73333329
        value: -.000387554406
        inSlope: -.000107281478
        outSlope: -.000107281478
        tangentMode: 0
      - time: .74999994
        value: -.000385667023
        inSlope: .000328034832
        outSlope: .000328034832
        tangentMode: 0
      - time: .766666591
        value: -.000376619922
        inSlope: .000745375408
        outSlope: .000745375408
        tangentMode: 0
      - time: .783333242
        value: -.000360821199
        inSlope: .00113218406
        outSlope: .00113218406
        tangentMode: 0
      - time: .799999893
        value: -.000338880491
        inSlope: .00147691718
        outSlope: .00147691718
        tangentMode: 0
      - time: .816666543
        value: -.000311590673
        inSlope: .00176918833
        outSlope: .00176918833
        tangentMode: 0
      - time: .833333194
        value: -.000279907603
        inSlope: .00199986296
        outSlope: .00199986296
        tangentMode: 0
      - time: .849999845
        value: -.00024492864
        inSlope: .00216119201
        outSlope: .00216119201
        tangentMode: 0
      - time: .866666496
        value: -.000207867939
        inSlope: .00224690442
        outSlope: .00224690442
        tangentMode: 0
      - time: .883333147
        value: -.000170031897
        inSlope: .00225225231
        outSlope: .00225225231
        tangentMode: 0
      - time: .899999797
        value: -.000132792935
        inSlope: .00217410875
        outSlope: .00217410875
        tangentMode: 0
      - time: .916666448
        value: -9.75616786e-05
        inSlope: .00201102276
        outSlope: .00201102276
        tangentMode: 0
      - time: .933333099
        value: -6.57589044e-05
        inSlope: .00176324695
        outSlope: .00176324695
        tangentMode: 0
      - time: .94999975
        value: -3.87868349e-05
        inSlope: .00143274036
        outSlope: .00143274036
        tangentMode: 0
      - time: .9666664
        value: -1.80009356e-05
        inSlope: .0010231979
        outSlope: .0010231979
        tangentMode: 0
      - time: .983333051
        value: -4.68027019e-06
        inSlope: .000540026056
        outSlope: .000540026056
        tangentMode: 0
      - time: 1
        value: -0
        inSlope: .000280811451
        outSlope: .000280811451
        tangentMode: 0
      m_PreInfinity: 2
      m_PostInfinity: 2
    attribute: m_LocalRotation.x
    path: 
    classID: 224
    script: {fileID: 0}
  - curve:
      serializedVersion: 2
      m_Curve:
      - time: 0
        value: -0
        inSlope: -.0264745858
        outSlope: -.0264745858
        tangentMode: 0
      - time: .0166666675
        value: -.000441243115
        inSlope: -.0254840888
        outSlope: -.0254840888
        tangentMode: 0
      - time: .0333333351
        value: -.000849469681
        inSlope: -.023437053
        outSlope: -.023437053
        tangentMode: 0
      - time: .0500000045
        value: -.00122247834
        inSlope: -.0212698281
        outSlope: -.0212698281
        tangentMode: 0
      - time: .0666666701
        value: -.00155846402
        inSlope: -.0190064982
        outSlope: -.0190064982
        tangentMode: 0
      - time: .0833333358
        value: -.00185602822
        inSlope: -.016671557
        outSlope: -.016671557
        tangentMode: 0
      - time: .100000001
        value: -.00211418257
        inSlope: -.0142896613
        outSlope: -.0142896613
        tangentMode: 0
      - time: .116666667
        value: -.00233235024
        inSlope: -.0118854325
        outSlope: -.0118854325
        tangentMode: 0
      - time: .13333334
        value: -.0025103637
        inSlope: -.00948324893
        outSlope: -.00948324893
        tangentMode: 0
      - time: .150000006
        value: -.00264845858
        inSlope: -.00710701663
        outSlope: -.00710701663
        tangentMode: 0
      - time: .166666672
        value: -.00274726423
        inSlope: -.0047799903
        outSlope: -.0047799903
        tangentMode: 0
      - time: .183333337
        value: -.00280779158
        inSlope: -.00252452469
        outSlope: -.00252452469
        tangentMode: 0
      - time: .200000003
        value: -.00283141504
        inSlope: -.000361923623
        outSlope: -.000361923623
        tangentMode: 0
      - time: .216666669
        value: -.0028198557
        inSlope: .00168772426
        outSlope: .00168772426
        tangentMode: 0
      - time: .233333334
        value: -.00277515757
        inSlope: .00360580441
        outSlope: .00360580441
        tangentMode: 0
      - time: .25
        value: -.00269966223
        inSlope: .00537528424
        outSlope: .00537528424
        tangentMode: 0
      - time: .266666681
        value: -.00259598135
        inSlope: .00698086247
        outSlope: .00698086247
        tangentMode: 0
      - time: .283333361
        value: -.00246696663
        inSlope: .00840908103
        outSlope: .00840908103
        tangentMode: 0
      - time: .300000042
        value: -.0023156784
        inSlope: .0096485056
        outSlope: .0096485056
        tangentMode: 0
      - time: .316666722
        value: -.00214534951
        inSlope: .0106898583
        outSlope: .0106898583
        tangentMode: 0
      - time: .333333403
        value: -.00195934949
        inSlope: .0115260333
        outSlope: .0115260333
        tangentMode: 0
      - time: .350000083
        value: -.0017611481
        inSlope: .0121520832
        outSlope: .0121520832
        tangentMode: 0
      - time: .366666764
        value: -.0015542797
        inSlope: .0125655485
        outSlope: .0125655485
        tangentMode: 0
      - time: .383333445
        value: -.00134229613
        inSlope: .0127663296
        outSlope: .0127663296
        tangentMode: 0
      - time: .400000125
        value: -.00112873502
        inSlope: .0127566382
        outSlope: .0127566382
        tangentMode: 0
      - time: .416666806
        value: -.000917074503
        inSlope: .0125411907
        outSlope: .0125411907
        tangentMode: 0
      - time: .433333486
        value: -.000710694992
        inSlope: .0121269906
        outSlope: .0121269906
        tangentMode: 0
      - time: .450000167
        value: -.000512841158
        inSlope: .01152346
        outSlope: .01152346
        tangentMode: 0
      - time: .466666847
        value: -.000326579349
        inSlope: .0107422788
        outSlope: .0107422788
        tangentMode: 0
      - time: .483333528
        value: -.000154764886
        inSlope: .0097974278
        outSlope: .0097974278
        tangentMode: 0
      - time: .500000179
        value: 1.560445e-09
        inSlope: .00871468708
        outSlope: .00871468708
        tangentMode: 0
      - time: .51666683
        value: .000135724418
        inSlope: .00756022427
        outSlope: .00756022427
        tangentMode: 0
      - time: .53333348
        value: .000252008787
        inSlope: .00640063128
        outSlope: .00640063128
        tangentMode: 0
      - time: .550000131
        value: .000349078589
        inSlope: .00526264776
        outSlope: .00526264776
        tangentMode: 0
      - time: .566666782
        value: .000427430205
        inSlope: .00416184589
        outSlope: .00416184589
        tangentMode: 0
      - time: .583333433
        value: .000487806654
        inSlope: .00311220717
        outSlope: .00311220717
        tangentMode: 0
      - time: .600000083
        value: .000531170343
        inSlope: .00212604832
        outSlope: .00212604832
        tangentMode: 0
      - time: .616666734
        value: .000558674859
        inSlope: .00121395395
        outSlope: .00121395395
        tangentMode: 0
      - time: .633333385
        value: .000571635435
        inSlope: .000384726241
        outSlope: .000384726241
        tangentMode: 0
      - time: .650000036
        value: .000571499055
        inSlope: -.00035462642
        outSlope: -.00035462642
        tangentMode: 0
      - time: .666666687
        value: .000559814565
        inSlope: -.000998928212
        outSlope: -.000998928212
        tangentMode: 0
      - time: .683333337
        value: .000538201479
        inSlope: -.00154482992
        outSlope: -.00154482992
        tangentMode: 0
      - time: .699999988
        value: .000508320285
        inSlope: -.00199075881
        outSlope: -.00199075881
        tangentMode: 0
      - time: .716666639
        value: .000471842912
        inSlope: -.00233693514
        outSlope: -.00233693514
        tangentMode: 0
      - time: .73333329
        value: .000430422515
        inSlope: -.00258527906
        outSlope: -.00258527906
        tangentMode: 0
      - time: .74999994
        value: .000385667023
        inSlope: -.00273937453
        outSlope: -.00273937453
        tangentMode: 0
      - time: .766666591
        value: .00033911012
        inSlope: -.00280439365
        outSlope: -.00280439365
        tangentMode: 0
      - time: .783333242
        value: .000292187324
        inSlope: -.00278697489
        outSlope: -.00278697489
        tangentMode: 0
      - time: .799999893
        value: .000246211042
        inSlope: -.00269513857
        outSlope: -.00269513857
        tangentMode: 0
      - time: .816666543
        value: .00020234946
        inSlope: -.00253818906
        outSlope: -.00253818906
        tangentMode: 0
      - time: .833333194
        value: .000161604825
        inSlope: -.0023265616
        outSlope: -.0023265616
        tangentMode: 0
      - time: .849999845
        value: .000124797487
        inSlope: -.00207168236
        outSlope: -.00207168236
        tangentMode: 0
      - time: .866666496
        value: 9.2548813e-05
        inSlope: -.00178585108
        outSlope: -.00178585108
        tangentMode: 0
      - time: .883333147
        value: 6.52691742e-05
        inSlope: -.00148205343
        outSlope: -.00148205343
        tangentMode: 0
      - time: .899999797
        value: 4.31470799e-05
        inSlope: -.00117382803
        outSlope: -.00117382803
        tangentMode: 0
      - time: .916666448
        value: 2.6141608e-05
        inSlope: -.000875087804
        outSlope: -.000875087804
        tangentMode: 0
      - time: .933333099
        value: 1.39775148e-05
        inSlope: -.000599951367
        outSlope: -.000599951367
        tangentMode: 0
      - time: .94999975
        value: 6.14324927e-06
        inSlope: -.000362566265
        outSlope: -.000362566265
        tangentMode: 0
      - time: .9666664
        value: 1.89198386e-06
        inSlope: -.000176939066
        outSlope: -.000176939066
        tangentMode: 0
      - time: .983333051
        value: 2.45286344e-07
        inSlope: -5.67594361e-05
        outSlope: -5.67594361e-05
        tangentMode: 0
      - time: 1
        value: -0
        inSlope: -1.47169312e-05
        outSlope: -1.47169312e-05
        tangentMode: 0
      m_PreInfinity: 2
      m_PostInfinity: 2
    attribute: m_LocalRotation.y
    path: 
    classID: 224
    script: {fileID: 0}
  - curve:
      serializedVersion: 2
      m_Curve:
      - time: 0
        value: -0
        inSlope: 3.14004636
        outSlope: 3.14004636
        tangentMode: 0
      - time: .0166666675
        value: .0523341075
        inSlope: 3.13575077
        outSlope: 3.13575077
        tangentMode: 0
      - time: .0333333351
        value: .10452503
        inSlope: 3.12286854
        outSlope: 3.12286854
        tangentMode: 0
      - time: .0500000045
        value: .156429738
        inSlope: 3.10142565
        outSlope: 3.10142565
        tangentMode: 0
      - time: .0666666701
        value: .207905889
        inSlope: 3.07148075
        outSlope: 3.07148075
        tangentMode: 0
      - time: .0833333358
        value: .258812428
        inSlope: 3.03311729
        outSlope: 3.03311729
        tangentMode: 0
      - time: .100000001
        value: .30900979
        inSlope: 2.9864397
        outSlope: 2.9864397
        tangentMode: 0
      - time: .116666667
        value: .35836041
        inSlope: 2.93157434
        outSlope: 2.93157434
        tangentMode: 0
      - time: .13333334
        value: .406728953
        inSlope: 2.86867309
        outSlope: 2.86867309
        tangentMode: 0
      - time: .150000006
        value: .45398286
        inSlope: 2.79790735
        outSlope: 2.79790735
        tangentMode: 0
      - time: .166666672
        value: .49999252
        inSlope: 2.71947145
        outSlope: 2.71947145
        tangentMode: 0
      - time: .183333337
        value: .544631898
        inSlope: 2.63357806
        outSlope: 2.63357806
        tangentMode: 0
      - time: .200000003
        value: .587778449
        inSlope: 2.54046702
        outSlope: 2.54046702
        tangentMode: 0
      - time: .216666669
        value: .629314125
        inSlope: 2.44039559
        outSlope: 2.44039559
        tangentMode: 0
      - time: .233333334
        value: .669124961
        inSlope: 2.3336277
        outSlope: 2.3336277
        tangentMode: 0
      - time: .25
        value: .707101703
        inSlope: 2.22046232
        outSlope: 2.22046232
        tangentMode: 0
      - time: .266666681
        value: .743140399
        inSlope: 2.10121036
        outSlope: 2.10121036
        tangentMode: 0
      - time: .283333361
        value: .777142107
        inSlope: 1.97619987
        outSlope: 1.97619987
        tangentMode: 0
      - time: .300000042
        value: .809013784
        inSlope: 1.84577489
        outSlope: 1.84577489
        tangentMode: 0
      - time: .316666722
        value: .838667989
        inSlope: 1.7102859
        outSlope: 1.7102859
        tangentMode: 0
      - time: .333333403
        value: .866023362
        inSlope: 1.57010674
        outSlope: 1.57010674
        tangentMode: 0
      - time: .350000083
        value: .89100492
        inSlope: 1.42562699
        outSlope: 1.42562699
        tangentMode: 0
      - time: .366666764
        value: .913544297
        inSlope: 1.27724195
        outSlope: 1.27724195
        tangentMode: 0
      - time: .383333445
        value: .933579683
        inSlope: 1.12535024
        outSlope: 1.12535024
        tangentMode: 0
      - time: .400000125
        value: .951056004
        inSlope: .970374167
        outSlope: .970374167
        tangentMode: 0
      - time: .416666806
        value: .965925515
        inSlope: .812744439
        outSlope: .812744439
        tangentMode: 0
      - time: .433333486
        value: .978147507
        inSlope: .652883112
        outSlope: .652883112
        tangentMode: 0
      - time: .450000167
        value: .987688303
        inSlope: .491231859
        outSlope: .491231859
        tangentMode: 0
      - time: .466666847
        value: .994521916
        inSlope: .328237742
        outSlope: .328237742
        tangentMode: 0
      - time: .483333528
        value: .99862957
        inSlope: .164342463
        outSlope: .164342463
        tangentMode: 0
      - time: .500000179
        value: 1
        inSlope: -1.78813934e-06
        outSlope: -1.78813934e-06
        tangentMode: 0
      - time: .51666683
        value: .99862951
        inSlope: -.164346263
        outSlope: -.164346263
        tangentMode: 0
      - time: .53333348
        value: .994521797
        inSlope: -.328240097
        outSlope: -.328240097
        tangentMode: 0
      - time: .550000131
        value: .987688184
        inSlope: -.491232753
        outSlope: -.491232753
        tangentMode: 0
      - time: .566666782
        value: .978147388
        inSlope: -.652878881
        outSlope: -.652878881
        tangentMode: 0
      - time: .583333433
        value: .965925574
        inSlope: -.812736928
        outSlope: -.812736928
        tangentMode: 0
      - time: .600000083
        value: .951056182
        inSlope: -.970365107
        outSlope: -.970365107
        tangentMode: 0
      - time: .616666734
        value: .933580101
        inSlope: -1.12533259
        outSlope: -1.12533259
        tangentMode: 0
      - time: .633333385
        value: .913545132
        inSlope: -1.27721906
        outSlope: -1.27721906
        tangentMode: 0
      - time: .650000036
        value: .891006172
        inSlope: -1.42560267
        outSlope: -1.42560267
        tangentMode: 0
      - time: .666666687
        value: .86602509
        inSlope: -1.57007909
        outSlope: -1.57007909
        tangentMode: 0
      - time: .683333337
        value: .838670254
        inSlope: -1.71025133
        outSlope: -1.71025133
        tangentMode: 0
      - time: .699999988
        value: .809016764
        inSlope: -1.84573698
        outSlope: -1.84573698
        tangentMode: 0
      - time: .716666639
        value: .777145743
        inSlope: -1.97616935
        outSlope: -1.97616935
        tangentMode: 0
      - time: .73333329
        value: .743144512
        inSlope: -2.10117292
        outSlope: -2.10117292
        tangentMode: 0
      - time: .74999994
        value: .707106709
        inSlope: -2.2204206
        outSlope: -2.2204206
        tangentMode: 0
      - time: .766666591
        value: .669130564
        inSlope: -2.33359027
        outSlope: -2.33359027
        tangentMode: 0
      - time: .783333242
        value: .629320443
        inSlope: -2.44036555
        outSlope: -2.44036555
        tangentMode: 0
      - time: .799999893
        value: .587785125
        inSlope: -2.54044056
        outSlope: -2.54044056
        tangentMode: 0
      - time: .816666543
        value: .54463917
        inSlope: -2.63355088
        outSlope: -2.63355088
        tangentMode: 0
      - time: .833333194
        value: .500000179
        inSlope: -2.71945429
        outSlope: -2.71945429
        tangentMode: 0
      - time: .849999845
        value: .453990787
        inSlope: -2.79790449
        outSlope: -2.79790449
        tangentMode: 0
      - time: .866666496
        value: .406736791
        inSlope: -2.86868167
        outSlope: -2.86868167
        tangentMode: 0
      - time: .883333147
        value: .358368158
        inSlope: -2.93158841
        outSlope: -2.93158841
        tangentMode: 0
      - time: .899999797
        value: .309017271
        inSlope: -2.98646641
        outSlope: -2.98646641
        tangentMode: 0
      - time: .916666448
        value: .258819371
        inSlope: -3.03315878
        outSlope: -3.03315878
        tangentMode: 0
      - time: .933333099
        value: .207912073
        inSlope: -3.07153678
        outSlope: -3.07153678
        tangentMode: 0
      - time: .94999975
        value: .156434909
        inSlope: -3.10149598
        outSlope: -3.10149598
        tangentMode: 0
      - time: .9666664
        value: .104528971
        inSlope: -3.12294722
        outSlope: -3.12294722
        tangentMode: 0
      - time: .983333051
        value: .0523367636
        inSlope: -3.13585377
        outSlope: -3.13585377
        tangentMode: 0
      - time: 1
        value: -3.2584137e-07
        inSlope: -3.140172
        outSlope: -3.140172
        tangentMode: 0
      m_PreInfinity: 2
      m_PostInfinity: 2
    attribute: m_LocalRotation.z
    path: 
    classID: 224
    script: {fileID: 0}
  - curve:
      serializedVersion: 2
      m_Curve:
      - time: 0
        value: -.999961913
        inSlope: .0820720121
        outSlope: .0820720121
        tangentMode: 0
      - time: .0166666675
        value: -.998594046
        inSlope: .164185151
        outSlope: .164185151
        tangentMode: 0
      - time: .0333333351
        value: -.994489074
        inSlope: .32807526
        outSlope: .32807526
        tangentMode: 0
      - time: .0500000045
        value: -.987658203
        inSlope: .491069555
        outSlope: .491069555
        tangentMode: 0
      - time: .0666666701
        value: -.978120089
        inSlope: .652715623
        outSlope: .652715623
        tangentMode: 0
      - time: .0833333358
        value: -.965901017
        inSlope: .812577069
        outSlope: .812577069
        tangentMode: 0
      - time: .100000001
        value: -.951034188
        inSlope: .970210552
        outSlope: .970210552
        tangentMode: 0
      - time: .116666667
        value: -.933560669
        inSlope: 1.12518477
        outSlope: 1.12518477
        tangentMode: 0
      - time: .13333334
        value: -.913528025
        inSlope: 1.27708006
        outSlope: 1.27708006
        tangentMode: 0
      - time: .150000006
        value: -.89099133
        inSlope: 1.42547083
        outSlope: 1.42547083
        tangentMode: 0
      - time: .166666672
        value: -.866012335
        inSlope: 1.56995785
        outSlope: 1.56995785
        tangentMode: 0
      - time: .183333337
        value: -.838659406
        inSlope: 1.7101444
        outSlope: 1.7101444
        tangentMode: 0
      - time: .200000003
        value: -.809007525
        inSlope: 1.84563887
        outSlope: 1.84563887
        tangentMode: 0
      - time: .216666669
        value: -.777138114
        inSlope: 1.9760747
        outSlope: 1.9760747
        tangentMode: 0
      - time: .233333334
        value: -.743138373
        inSlope: 2.10109615
        outSlope: 2.10109615
        tangentMode: 0
      - time: .25
        value: -.707101583
        inSlope: 2.22035694
        outSlope: 2.22035694
        tangentMode: 0
      - time: .266666681
        value: -.669126451
        inSlope: 2.33353233
        outSlope: 2.33353233
        tangentMode: 0
      - time: .283333361
        value: -.629317105
        inSlope: 2.44031286
        outSlope: 2.44031286
        tangentMode: 0
      - time: .300000042
        value: -.587782621
        inSlope: 2.54040194
        outSlope: 2.54040194
        tangentMode: 0
      - time: .316666722
        value: -.544636965
        inSlope: 2.63352203
        outSlope: 2.63352203
        tangentMode: 0
      - time: .333333403
        value: -.49999848
        inSlope: 2.71942687
        outSlope: 2.71942687
        tangentMode: 0
      - time: .350000083
        value: -.453989327
        inSlope: 2.7978816
        outSlope: 2.7978816
        tangentMode: 0
      - time: .366666764
        value: -.406735688
        inSlope: 2.8686657
        outSlope: 2.8686657
        tangentMode: 0
      - time: .383333445
        value: -.358367056
        inSlope: 2.93157959
        outSlope: 2.93157959
        tangentMode: 0
      - time: .400000125
        value: -.309016287
        inSlope: 2.9864583
        outSlope: 2.9864583
        tangentMode: 0
      - time: .416666806
        value: -.258818358
        inSlope: 3.0331552
        outSlope: 3.0331552
        tangentMode: 0
      - time: .433333486
        value: -.207911029
        inSlope: 3.07153535
        outSlope: 3.07153535
        tangentMode: 0
      - time: .450000167
        value: -.156433761
        inSlope: 3.1014936
        outSlope: 3.1014936
        tangentMode: 0
      - time: .466666847
        value: -.104527824
        inSlope: 3.12295604
        outSlope: 3.12295604
        tangentMode: 0
      - time: .483333528
        value: -.0523351394
        inSlope: 3.13585424
        outSlope: 3.13585424
        tangentMode: 0
      - time: .500000179
        value: 6.39757843e-07
        inSlope: 3.14015675
        outSlope: 3.14015675
        tangentMode: 0
      - time: .51666683
        value: .0523366556
        inSlope: 3.13585663
        outSlope: 3.13585663
        tangentMode: 0
      - time: .53333348
        value: .104529098
        inSlope: 3.12295413
        outSlope: 3.12295413
        tangentMode: 0
      - time: .550000131
        value: .156435028
        inSlope: 3.10149527
        outSlope: 3.10149527
        tangentMode: 0
      - time: .566666782
        value: .207912177
        inSlope: 3.07153606
        outSlope: 3.07153606
        tangentMode: 0
      - time: .583333433
        value: .258819461
        inSlope: 3.03315759
        outSlope: 3.03315759
        tangentMode: 0
      - time: .600000083
        value: .30901733
        inSlope: 2.98646927
        outSlope: 2.98646927
        tangentMode: 0
      - time: .616666734
        value: .358368337
        inSlope: 2.93158841
        outSlope: 2.93158841
        tangentMode: 0
      - time: .633333385
        value: .406736851
        inSlope: 2.86867452
        outSlope: 2.86867452
        tangentMode: 0
      - time: .650000036
        value: .453990728
        inSlope: 2.79790068
        outSlope: 2.79790068
        tangentMode: 0
      - time: .666666687
        value: .500000119
        inSlope: 2.71945429
        outSlope: 2.71945429
        tangentMode: 0
      - time: .683333337
        value: .544639111
        inSlope: 2.63355803
        outSlope: 2.63355803
        tangentMode: 0
      - time: .699999988
        value: .587785304
        inSlope: 2.54044056
        outSlope: 2.54044056
        tangentMode: 0
      - time: .716666639
        value: .629320383
        inSlope: 2.44036388
        outSlope: 2.44036388
        tangentMode: 0
      - time: .73333329
        value: .669130683
        inSlope: 2.33359194
        outSlope: 2.33359194
        tangentMode: 0
      - time: .74999994
        value: .707106709
        inSlope: 2.22042418
        outSlope: 2.22042418
        tangentMode: 0
      - time: .766666591
        value: .743144751
        inSlope: 2.10117292
        outSlope: 2.10117292
        tangentMode: 0
      - time: .783333242
        value: .777145743
        inSlope: 1.97616935
        outSlope: 1.97616935
        tangentMode: 0
      - time: .799999893
        value: .809017003
        inSlope: 1.84574056
        outSlope: 1.84574056
        tangentMode: 0
      - time: .816666543
        value: .838670373
        inSlope: 1.71024776
        outSlope: 1.71024776
        tangentMode: 0
      - time: .833333194
        value: .866025209
        inSlope: 1.57007909
        outSlope: 1.57007909
        tangentMode: 0
      - time: .849999845
        value: .891006291
        inSlope: 1.42560625
        outSlope: 1.42560625
        tangentMode: 0
      - time: .866666496
        value: .91354537
        inSlope: 1.27722263
        outSlope: 1.27722263
        tangentMode: 0
      - time: .883333147
        value: .933580339
        inSlope: 1.12533259
        outSlope: 1.12533259
        tangentMode: 0
      - time: .899999797
        value: .951056421
        inSlope: .970363319
        outSlope: .970363319
        tangentMode: 0
      - time: .916666448
        value: .965925753
        inSlope: .812733352
        outSlope: .812733352
        tangentMode: 0
      - time: .933333099
        value: .978147507
        inSlope: .652875304
        outSlope: .652875304
        tangentMode: 0
      - time: .94999975
        value: .987688243
        inSlope: .491230965
        outSlope: .491230965
        tangentMode: 0
      - time: .9666664
        value: .994521856
        inSlope: .328238308
        outSlope: .328238308
        tangentMode: 0
      - time: .983333051
        value: .99862951
        inSlope: .16434373
        outSlope: .16434373
        tangentMode: 0
      - time: 1
        value: 1
        inSlope: .0822279826
        outSlope: .0822279826
        tangentMode: 0
      m_PreInfinity: 2
      m_PostInfinity: 2
    attribute: m_LocalRotation.w
    path: 
    classID: 224
    script: {fileID: 0}
  m_EulerEditorCurves:
  - curve:
      serializedVersion: 2
      m_Curve:
      - time: 0
        value: 1
        inSlope: -2
        outSlope: -2
        tangentMode: 10
      - time: .5
        value: 0
        inSlope: -1
        outSlope: -1
        tangentMode: 10
      - time: 1
        value: 0
        inSlope: 0
        outSlope: 0
        tangentMode: 10
      m_PreInfinity: 2
      m_PostInfinity: 2
    attribute: localEulerAnglesBaked.x
    path: 
    classID: 224
    script: {fileID: 0}
  - curve:
      serializedVersion: 2
      m_Curve:
      - time: 0
        value: 0
        inSlope: 0
        outSlope: 0
        tangentMode: 10
      - time: .5
        value: 0
        inSlope: 0
        outSlope: 0
        tangentMode: 10
      - time: 1
        value: 0
        inSlope: 0
        outSlope: 0
        tangentMode: 10
      m_PreInfinity: 2
      m_PostInfinity: 2
    attribute: localEulerAnglesBaked.y
    path: 
    classID: 224
    script: {fileID: 0}
  - curve:
      serializedVersion: 2
      m_Curve:
      - time: 0
        value: 0
        inSlope: -360
        outSlope: -360
        tangentMode: 10
      - time: .5
        value: -180
        inSlope: -360
        outSlope: -360
        tangentMode: 10
      - time: 1
        value: -360
        inSlope: -360
        outSlope: -360
        tangentMode: 10
      m_PreInfinity: 2
      m_PostInfinity: 2
    attribute: localEulerAnglesBaked.z
    path: 
    classID: 224
    script: {fileID: 0}
  m_HasGenericRootTransform: 0
  m_HasMotionFloatCurves: 0
  m_GenerateMotionCurves: 0
  m_Events: []
