%YAML 1.1
%TAG !u! tag:unity3d.com,2011:
--- !u!21 &2100000
Material:
  serializedVersion: 3
  m_ObjectHideFlags: 0
  m_PrefabParentObject: {fileID: 0}
  m_PrefabInternal: {fileID: 0}
  m_Name: TesteShaders
  m_Shader: {fileID: 4800000, guid: e772feb8673f948bbbcf576eb78ab56c, type: 3}
  m_ShaderKeywords: []
  m_CustomRenderQueue: -1
  m_SavedProperties:
    serializedVersion: 2
    m_TexEnvs:
      data:
        first:
          name: _MainTex
        second:
          m_Texture: {fileID: 2800000, guid: d0a90e08975ae412190bee4af2a90d34, type: 3}
          m_Scale: {x: 1, y: 1}
          m_Offset: {x: 0, y: 0}
      data:
        first:
          name: _BumpMap
        second:
          m_Texture: {fileID: 2800000, guid: d0a90e08975ae412190bee4af2a90d34, type: 3}
          m_Scale: {x: 1, y: 1}
          m_Offset: {x: 0, y: 0}
      data:
        first:
          name: _DecalTex
        second:
          m_Texture: {fileID: 0}
          m_Scale: {x: 1, y: 1}
          m_Offset: {x: 0, y: 0}
      data:
        first:
          name: _YTex
        second:
          m_Texture: {fileID: 0}
          m_Scale: {x: 1, y: 1}
          m_Offset: {x: 0, y: 0}
      data:
        first:
          name: _CrTex
        second:
          m_Texture: {fileID: 0}
          m_Scale: {x: 1, y: 1}
          m_Offset: {x: 0, y: 0}
      data:
        first:
          name: _CbTex
        second:
          m_Texture: {fileID: 0}
          m_Scale: {x: 1, y: 1}
          m_Offset: {x: 0, y: 0}
    m_Floats:
      data:
        first:
          name: _Cutoff
        second: .20892857
      data:
        first:
          name: _Sens
        second: .0900000036
      data:
        first:
          name: _LowThreshold
        second: .5
      data:
        first:
          name: _HighThreshold
        second: .0599999987
      data:
        first:
          name: _RimPower
        second: 1.70777202
      data:
        first:
          name: _Glossiness
        second: .430051804
      data:
        first:
          name: _Sensitivity
        second: .053571444
      data:
        first:
          name: _Smooth
        second: .189999998
      data:
        first:
          name: _SensR
        second: .899999976
      data:
        first:
          name: _SensG
        second: .899999976
      data:
        first:
          name: _SensB
        second: .85178566
    m_Colors:
      data:
        first:
          name: _Color
        second: {r: .333333343, g: .686274529, b: .172549024, a: 1}
      data:
        first:
          name: _KeyYCbCr
        second: {r: .510961473, g: .381676793, b: .326678067, a: 1}
      data:
        first:
          name: _YCbCRDeltaScale
        second: {r: 10.1000004, g: 12, b: 3, a: 15.9690332}
      data:
        first:
          name: _DiffuseColor
        second: {r: 1, g: 0, b: 0, a: 1}
      data:
        first:
          name: _RimColor
        second: {r: 0, g: .118881203, b: 1, a: 1}
      data:
        first:
          name: _SpecularColor
        second: {r: .300699413, g: 1, b: 0, a: 1}
      data:
        first:
          name: _MaskCol
        second: {r: .333333343, g: .686274529, b: .172549024, a: 1}
      data:
        first:
          name: _TintColor
        second: {r: .0393713713, g: 1, b: 0, a: 1}
